2018-02-07 22:54:50 INFO edu.baylor.ecs.si.Timer <clinit> starting the app
2018-02-07 22:54:50 INFO edu.baylor.ecs.si.Timer timeMe Calling took: 0
2018-02-07 22:54:50 INFO edu.baylor.ecs.si.Timer timeMe * should take: 0
2018-02-07 22:54:50 FINER org.junit.jupiter.engine.execution.ConditionEvaluator logResult Evaluation of condition [org.junit.jupiter.engine.extension.DisabledCondition] resulted in: ConditionEvaluationResult [enabled = true, reason = '@Disabled is not present']
2018-02-07 22:54:50 INFO edu.baylor.ecs.si.Timer timeMe Calling took: 0
2018-02-07 22:54:50 INFO edu.baylor.ecs.si.Timer timeMe * should take: 0
2018-02-07 22:54:50 FINER org.junit.jupiter.engine.execution.ConditionEvaluator logResult Evaluation of condition [org.junit.jupiter.engine.extension.DisabledCondition] resulted in: ConditionEvaluationResult [enabled = true, reason = '@Disabled is not present']
2018-02-07 22:54:51 INFO edu.baylor.ecs.si.Timer timeMe Calling took: 1000
2018-02-07 22:54:51 INFO edu.baylor.ecs.si.Timer timeMe * should take: 1000
